{
    "messages":{
        "discovery":{
            "start":{
                "title":"START HERE",
                "content":"Find a tour you like and tap the download button to save it to your device."
            }
        }
    }
}
